Biostat M280 Homework 4
…
top_airports2 <- top_airports1 %>%
  select(dest, lat, lon, n)
top_airports2

## # A tibble: 350 x 4
## # Groups:   dest [350]
##    dest  lat                lon                         n
##    <chr> <chr>              <chr>                   <dbl>
##  1 ORD   41.97859955        -87.90480042        13235477.
##  2 ATL   33.63669967651367  -84.4281005859375   12195139.
##  3 DFW   32.89680099487305  -97.03800201416016  11456573.
##  4 LAX   33.94250107        -118.4079971         8175942.
##  5 PHX   33.43429946899414  -112.01200103759766  6988841.
##  6 DEN   39.861698150635    -104.672996521       6655127.
##  7 DTW   42.212398529052734 -83.35340118408203   5976296.
##  8 IAH   29.984399795532227 -95.34140014648438   5774489.
##  9 MSP   44.881999969499994 -93.22180175780001   5520188.
## 10 SFO   37.61899948120117  -122.375             5459586.
## # ... with 340 more rows
…
Map the top 10 busiest direct routes. Size of lines should reflect the number of flights through that route.

top_droute <- flights_tbl %>%
  group_by(origin, dest) %>%
  count() %>%
  arrange(desc(n)) %>%
  collect()
top_droute

## # A tibble: 8,608 x 3
## # Groups:   origin, dest [8,608]
##    origin dest        n
##    <chr>  <chr>   <dbl>
##  1 SFO    LAX   338472.
##  2 LAX    SFO   336938.
##  3 LAX    LAS   292125.
##  4 LAS    LAX   286328.
##  5 PHX    LAX   279716.
##  6 LAX    PHX   279116.
##  7 ORD    MSP   249960.
##  8 MSP    ORD   249250.
##  9 PHX    LAS   240587.
## 10 LAS    PHX   239183.
## # ... with 8,598 more rows
…
